Tag Library Index 1.1.0
BUILDPATH_DIRTY|true
BUILDPATH_ENTRIES|3
JAR|false|false|/home/alumno/.m2/repository/org/springframework/batch/spring-batch-test/2.1.9.RELEASE/spring-batch-test-2.1.9.RELEASE.jar
JAR|false|false|/home/alumno/.m2/repository/org/springframework/batch/spring-batch-core/3.0.2.RELEASE_1/spring-batch-core-3.0.2.RELEASE_1.jar
JAR|false|false|/home/alumno/.m2/repository/org/springframework/spring-beans/3.2.13.RELEASE_1/spring-beans-3.2.13.RELEASE_1.jar
